[
  {
    "id": "construccion-paticipativa",
    "title": "Construcción Participativa",
    "img": "./images/construccion-participativa.svg",
    "color": "#BEBE3B",
    "type": "Presentation",
    "typeId": "presentation",
    "cardType": {
      "presentationName": "Kit de Proyecto Colaborativo",
      "icon": "./images/actua.svg",
      "subTitle": "¡Wepa! soy Marisa, tengo 34 años y soy mejor conocida como la resuelve-todo del barrio Las Yautías.",
      "description": "No es por tener guille, pero nadie me pone un pie alante cuando de usar herramientas se trata. Por eso me llaman cada vez que hay que reparar algo que se rompió en la casa, limpiar el parque o hasta pensar cómo entrarle a un proyecto de construcción. Yo soy de las que piensa que unx tiene que envolverse en lo que se construye en la comunidad, y este Kit de Proyecto Colaborativo es perfecto para eso. ",
      "sentence": "¡Agarra esta cinta métrica y vamos a meterle!",
      "name": "MARISA",
      "nameSvg": "./images/marisa.svg"
    }
  },
  {
    "id": "construccion-paticipativa",
    "title": "Construcción Participativa",
    "img": "./images/camera.svg",
    "color": "#BEBE3B",
    "type": "Photo",
    "typeId": "photo",
    "cardType": {
      "typeName": "Álbum de fotos",
      "subTitle": "Proyecto Colaborativo",
      "description": "Aquí puedes ver fotos de los procesos de construcción de distintos proyectos colaborativos en las comunidades de Comerío, Carolina y Humacao, incluyendo la Casa de Iris en San Antón, la Casa de Luis en Vuelta del Dos y el Parque Mis Panitas en Mariana.",
      "picture": [
        {
          "id": 1,
          "img": "./images/proyecto-colaborativo-photo/1.jpg"
        },
        {
          "id": 2,
          "img": "./images/proyecto-colaborativo-photo/2.jpg"
        },
        {
          "id": 3,
          "img": "./images/proyecto-colaborativo-photo/4.jpg"
        },
        {
          "id": 4,
          "img": "./images/proyecto-colaborativo-photo/5.jpg"
        },
        {
          "id": 5,
          "img": "./images/proyecto-colaborativo-photo/6.jpg"
        },
        {
          "id": 6,
          "img": "./images/proyecto-colaborativo-photo/7.jpg"
        },
        {
          "id": 7,
          "img": "./images/proyecto-colaborativo-photo/8.jpg"
        }
      ]
    }
  },
  {
    "id": "construccion-paticipativa",
    "title": "Construcción Participativa",
    "img": "./images/play.svg",
    "color": "#BEBE3B",
    "type": "Audiovisual",
    "typeId": "audio-visual",
    "cardType": {
      "videoType": "Proyecto Colaborativo",
      "videoInfoContainer": [
        {
          "question": "Prende Paloma",
          "answer": "Aprende sobre el proyecto Prende Paloma de Comerío, una iniciativa para proveer iluminación nocturna a espacios comunes en el vecindario.",
          "url": "https://www.youtube.com/embed/DG2rSpoWA_E"
        },
        {
          "question": "La Conde",
          "answer": "Conoce el proyecto La Conde en Carolina, una antigua escuela cerrada por el gobierno en el 2017 que fue rescatada y rediseñada por sus vecinxs para albergar un bosque frutal y un centro comunitario.",
          "url": "https://www.youtube.com/embed/DG2rSpoWA_E"
        },
        {
          "question": "Agua para Todos",
          "answer": "Aprende sobre el proyecto Agua para Todos, una colaboración entre La Maraña y un grupo de vecinxs de Humacao para el diseño y construcción de tres pozos de agua. Estos puntos de acceso están conectados a un manantial subterráneo y funcionan por gravedad, así que aseguran agua potable para todxs lxs vecinxs de la comunidad de Mariana en caso de cualquier necesidad.",
          "url": "https://www.youtube.com/embed/DG2rSpoWA_E"
        }
      ]
    }
  },
  {
    "id": "construccion-paticipativa",
    "title": "Construcción Participativa",
    "img": "./images/cube.svg",
    "color": "#BEBE3B",
    "type": "Rompehielos",
    "typeId": "rompehielos",
    "cardType": {
      "nameType": "Rompehielos",
      "kitType": "Kit de Proyecto Colaborativo",

      "actionTitle": [
        {
          "icon": "./images/conversa.svg",
          "subTitle": "CONVERSA",
          "actionSentence": "¿Has visto o participado de algún proyecto de construcción o reparación alguna vez? Cuéntale tu experiencia a los demás: ¿Qué fue lo más que te llamo la atención? ¿Qué te gustó del proyecto? ¿Qué no te gustó o qué cambiarías?"
        },
        {
          "icon": "./images/dibuja.svg",
          "subTitle": "DIBUJA",
          "actionSentence": "Divídanse en dos equipos. Tomen turnos de un minuto para dibujar en silencio alguna herramienta o material de construcción o jardinería en una pizarra. Cuando tu equipo adivine, anoten la herramienta. Síguelo hasta que se consuma el minuto. ¡Ah, y no pueden repetirse herramientas! Gana el equipo con la lista más larga al final."
        },
        {
          "icon": "./images/actua.svg",
          "subTitle": "ACTÚA",
          "actionSentence": "Descarga o busca en tu cartuchera los papelitos del Pote de Mímicas de la Maraña. Hazlos bollitos y ponlos en un sombrero o recipiente grande. Tomen turnos para sacar un papelito y realizar en silencio la acción indicada hasta que lxs demás adivinen."
        },
        {
          "icon": "./images/libre.svg",
          "subTitle": "LIBRE",
          "actionSentence": "Hagan un listado de las distintas poblaciones que componen su comunidad, desde los niñxs hasta lxs adultxs de la tercera edad. Evalúen: ¿cómo podría aportar cada sector en el proceso de diseño y construcción de un huerto comunitario?"
        }
      ]
    }
  },

  {
    "id": "construccion-paticipativa",
    "cardNumber": 1,
    "title": "Guía de Proyecto Colaborativo",
    "img": "./images/saw.svg",
    "color": "#BEBE3B",
    "type": "Herramientas",
    "typeId": "herramientas",
    "cardType": {
      "subTitle": "Conozcamos el diseño participativo y proceso de proyecto",
      "beforeStarting": [
        {
          "step": 1,
          "statement": "CONFORME UN COMITÉ DE PROYECTOS.",
          "sentence": "Conformen un Comité de Proyectos. Estx corillx debe incluir personas organizadas, que tengan “don de gente” y si saben algo de construcción, diseño y/o jardinería, ¡mejor!"
        },
        {
          "step": 2,
          "statement": "VERIFIQUEN LA GUÍA.",
          "sentence": "Lean sobre el proceso de diseño participativo, consideraciones importantes a tener a la hora de llevar una idea a la realidad, y cómo participar en todo proyecto sin importar su escala.",
          "pdf": "http://www.africau.edu/images/default/sample.steps",
          "pdfButton": "DESCARGAR GUÍA"
        },
        {
          "step": 3,
          "statement": "IDENTIFIQUEN",
          "sentence": "Identifiquen que tipo de proyecto les interesa realizar. La planificación y conocimiento necesarios para llevarlo a cabo va a depender de la escala y complejidad del proyecto."
        }
      ],
      "allReady": [
        {
          "step": 1,
          "statement": "¡ORGANICEN SUS RECURSOS HUMANOS!",
          "sentence": "Pueden usar las herramientas #3 de este kit para chequear con qué recursos cuentan dentro de su propia comunidad y cuáles deben procurar fuera."
        },
        {
          "step": 2,
          "statement": "¡ORGANICEN SUS RECURSOS FINANCIEROS!",
          "sentence": "Mi amiga Susi preparó una herramienta bien nítida para esto. Busquen “Presupuesto Transparente” en el Kit de Procesos Comunitarios."
        },
        {
          "step": 3,
          "statement": "¡ELABOREN UN PLAN DE ACCIÓN!",
          "sentence": "Ya que saben qué recursos necesitan, planifiquen cómo conseguirlos."
        }
      ],
      "note1": "1. Anoten lo que discutieron, qué decisiones tomaron y qué tareas se repartieron. \n2. No se vayan sin acordar cuándo reunirse de nuevo. Les recomiendo poner una fecha periódica, como los primeros jueves de cada mes."
    }
  },
  {
    "id": "construccion-paticipativa",
    "cardNumber": 2,
    "title": "Espiral de Proyecto",
    "img": "./images/saw.svg",
    "color": "#BEBE3B",
    "type": "Herramientas",
    "typeId": "herramientas",
    "cardType": {
      "subTitle": "Conozcamos el proceso detrás de un proyecto",
      "beforeStarting": [
        {
          "step": 1,
          "statement": "ORGANICEN UN COMITÉ DE PROYECTOS.",
          "sentence": "Un buen equipo tendrá alguien organizadx, alguien con poder de convocatoria y alguien creativx."
        },
        {
          "step": 2,
          "statement": "REÚNANSE.",
          "sentence": "Acuerden un lugar cómodo, preferiblemente con una pizarra o mesa grande donde desenrrollar la hermienta"
        },
        {
          "step": 3,
          "statement": "PREPAREN LA HERRAMIENTA",
          "sentence": "Tienen una copia en el Archivo de documentos de la Cartuchera",
          "pdf": "http://www.africau.edu/images/default/sample.steps",
          "pdfButton": "DESCARGAR GUÍA"
        }
      ],
      "allReady": [
        {
          "step": 1,
          "statement": "OBSERVEN EL DIAGRAMA.",
          "sentence": "Vean como la expiral se va agrandando mientras más complejo es el proyecto."
        },
        {
          "step": 2,
          "statement": "¡HAGAN SU PROPIO DIAGRAMA!",
          "sentence": "Construyan un diagrama de proceso con los pasos que le apliquen específicamente a su proyecto. Describan el objetivo general de cada paso."
        },
        {
          "step": 3,
          "statement": "¡DELIMITEN LAS TAREAS A REALIZAR  !",
          "sentence": "Para cada paso, hagan una lista de tareas y estimen cuánto tiempo y recursos conllevará realizar cada una."
        }
      ],
      "note1": "1. Evalúen el resultado y pregúntense ¿Qué recursos tenemos y cuáles tenemos que procurar? \n2. Compartan el diagrama con la comunidad. Pueden compartir fotos por texto o email, o presentarlo en la próxima asamblea."
    }
  },
  {
    "id": "construccion-paticipativa",
    "cardNumber": 3,
    "title": "Mapa de Equipos",
    "img": "./images/saw.svg",
    "color": "#BEBE3B",
    "type": "Herramientas",
    "typeId": "herramientas",
    "cardType": {
      "subTitle": "Reclutar recursos humanos y montar un equipo",
      "beforeStarting": [
        {
          "step": 1,
          "statement": "REUNAN EL COMITÉ DE PROYECTO.",
          "sentence": "(Ver herramienta 1) Inviten a la comunidad. Ya saben, lo ideal es que sea en un lugar cómodo con una mesa grande o pared donde pegar la herramienta."
        },
        {
          "step": 2,
          "statement": "PREPAREN LA HERRAMIENTA.",
          "sentence": "Búsquenla en el Archivo de Documentos de la Cartuchera. Si quieren más copias.",
          "pdf": "http://www.africau.edu/images/default/sample.steps",
          "pdfButton": "DESCARGAR GUÍA"
        },
        {
          "step": 3,
          "statement": "VERIFIQUEN",
          "sentence": "Verifiquen la Herramienta de Activos Comunitarios del Kit de Procesos Comunitarios que preparó mi compa Susi. ¡Verán lo útil que resulta para montar cualquier equipo!"
        }
      ],
      "allReady": [
        {
          "step": 1,
          "statement": "¡OBSERVEN EL DIAGRAMA!",
          "sentence": "Fíjate en los distintos roles y resonsabilidades que deben cumplirse para que el proyecto corra, y cómo se conectan unxs y otrxs."
        },
        {
          "step": 2,
          "statement": "¡PREPAREN LA HERRAMIENTA!",
          "sentence": "Verifiquen qué vecinxs de la comunidad están puestxs a participiar del proceso de diseño y qué rol pueden ocupar.'"
        },
        {
          "step": 3,
          "statement": "¡BUSQUEN REFUERZOS!",
          "sentence": "Si hay roles que faltan por asignar, ¡que no cunda el pánico! Unx no tiene que saberlo todo, siempre y cuando se sepa cuándo buscar ayuda externa."
        }
      ],
      "note1": "Ya tienen el plan monta´o. <b> ¡Ahora es cuestión de planificar para ejecutarlo!</b>"
    }
  },
  {
    "id": "construccion-paticipativa",
    "cardNumber": 4,
    "title": "Lista de Cotejo para Brigadas",
    "img": "./images/saw.svg",
    "color": "#BEBE3B",
    "type": "Herramientas",
    "typeId": "herramientas",
    "cardType": {
      "subTitle": "¡Pongamos manos a la obra!",
      "beforeStarting": [
        {
          "step": 1,
          "statement": "DELIMITEN UN OBJETIVO.",
          "sentence": "Desde limpiar un vertedero clandestino, pintar una escuela o hacer el patio del parque, ¡todo es posible si se hace entre todxs!"
        },
        {
          "step": 2,
          "statement": "CHEQUEEN LA HERRAMIENTA.",
          "sentence": "Más que una lista de cotejo pelá, aquí hay consejos y truquitos para organizar y aprovechar la actividad al máximo.",
          "pdf": "http://www.africau.edu/images/default/sample.steps",
          "pdfButton": "DESCARGAR GUÍA"
        },
        {
          "step": 3,
          "statement": "¡PONGAN FECHA Y CONVOQUEN LX CORIILX!",
          "sentence": "Inviten a todoxs sus vecinxs con tiempo."
        },
        {
          "step": 4,
          "statement": "PREPAREN UN LISTADO DE MATERIALES.",
          "sentence": "¡No hay nada peor que llegar a una brigada de pintura y no tener brochas! Pregúntale a lxs voluntarixs si tienen alguna herramienta que puedan prestar, y procuren conseguir lo que falte."
        }
      ],
      "allReady": [
        {
          "step": 1,
          "statement": "COMIENCEN",
          "sentence": "Pueden usar las herramientas #3 de este kit para chequear con qué recursos cuentan dentro de su propia comunidad y cuáles deben procurar fuera."
        },
        {
          "step": 2,
          "statement": "PREPAREN",
          "sentence": "Preparen una lista de tareas y repártanselas. Les recomiendo hacer grupos de voluntarixs con unx encargadx o líder para cada parte del trabajo."
        },
        {
          "step": 3,
          "statement": "¡TOMEN DESCANSOS E HIDRANTENSE!",
          "sentence": "Las tareas de una brigada pueden ser pesadas. Recuerde tomarse pequeños “breaks” y tomar mucha agua."
        }
      ],
      "note1": "Wao, mi gente, <b>¡miren lo que han hecho juntxs!</b> Aprovechen y conversen: \n1. ¿Qué pudieron lograr? ¿ Qué faltó por hacer? ¿Cuándo pueden regresar a terminarlo? \n2. Qué les pareció la actividad? ¿Qué cambiarian para una próxima ocasión?"
    }
  },

  {
    "id": "procesos-comunitarios",
    "title": "Procesos Comunitarios",
    "img": "./images/procesos-comunitarios.svg",
    "color": "#9BC2D4",
    "type": "Presentation",
    "typeId": "presentation",
    "cardType": {
      "presentationName": "Kit de Procesos Comunitarios",
      "subTitle": "¡Saludos! Mi nombre es Susana pero todxs aquí me llaman Susi. ",
      "description": "Casi todas las tardes paso por esta cafetería a tomar un café mientras leo y hago tareas en la compu. Estoy en mi último año de universidad estudiando administración de empresas y me encanta todo lo que tenga que ver con sacar números, organizar a la gente y tomar anotaciones. Yo sé que a veces hacer estas cosas puede hacerse aburrido y chavón, pero por eso me gustan tanto las herramientas del Kit de Procesos Comunitarios. Son súper buenas para ver con qué recursos cuenta tu comunidad y cómo mejor organizarlos para lograr un proyecto común. ¡Vamos a explorarlo juntxs!",
      "name": "SUSANA",
      "nameSvg": "./images/susana.svg"
    }
  },
  {
    "id": "procesos-comunitarios",
    "title": "Procesos Comunitarios",
    "img": "./images/cube.svg",
    "color": "#9BC2D4",
    "type": "Rompehielos",
    "typeId": "rompehielos",
    "cardType": {
      "nameType": "Rompehielos",
      "kitType": "Kit de Procesos Comunitarios",
      "actionTitle": [
        {
          "icon": "./images/conversa.svg",
          "subTitle": "CONVERSA",
          "actionSentence": "¿Cuenta tu comunidad con un liderato u organización de vecinxs? si lo tienen, ¿Cómo aporta al bientestar de tu comunidad? Y si no están organizadxs aún, ¿por qué?"
        },
        {
          "icon": "./images/dibuja.svg",
          "subTitle": "DIBUJA",
          "actionSentence": "Piensa en alguna persona que sería un recurso valioso que tu comunidad no tiene ahora mismo. Por ejemplo ¿cuentan con unx electrcista, unx barberx o unx doctorx? Usen un papel de estraza gigante o una pizarra para dibujar el instrumento de trabajo que caracterice a cada cual."
        },
        {
          "icon": "./images/actua.svg",
          "subTitle": "ACTÚA",
          "actionSentence": "Piensa en un espacio reconocido de tu vecindario. Sin decir nada, actúa como si estuvises en ese lugar. La idea es que lxs demás adivinen en qué sitio imaginas estar."
        },
        {
          "icon": "./images/libre.svg",
          "subTitle": "LIBRE",
          "actionSentence": "Escoge unx miembrx de tu comunidad. Sin mencionar nombres propios ni dar descripciones físicas, di tres características que lx distinguen y procura que lxs demás adivinen de quien se trata."
        }
      ]
    }
  },

  {
    "id": "procesos-comunitarios",
    "title": "Procesos Comunitarios",
    "img": "./images/camera.svg",
    "color": "#9BC2D4",
    "type": "Photo",
    "typeId": "photo",
    "cardType": {
      "typeName": "Álbum de fotos",
      "subTitle": "Procesos Comunitarios",
      "description": "Las comunidades de Humacao, Carolina y Comerío imaginan espacios accesibles y seguros que atiendan las necesidades de sus barrios.",
      "picture": [
        {
          "id": 1,
          "img": "./images/proceso-comunitario-photo/1.jpg"
        },
        {
          "id": 2,
          "img": "./images/proceso-comunitario-photo/2.jpg"
        },
        {
          "id": 3,
          "img": "./images/proceso-comunitario-photo/3.jpg"
        },
        {
          "id": 4,
          "img": "./images/proceso-comunitario-photo/4.jpg"
        },
        {
          "id": 5,
          "img": "./images/proceso-comunitario-photo/5.jpg"
        },
        {
          "id": 6,
          "img": "./images/proceso-comunitario-photo/6.jpg"
        },
        {
          "id": 7,
          "img": "./images/proceso-comunitario-photo/7.jpg"
        },
        {
          "id": 8,
          "img": "./images/proceso-comunitario-photo/8.jpg"
        },
        {
          "id": 9,
          "img": "./images/proceso-comunitario-photo/9.jpg"
        },
        {
          "id": 10,
          "img": "./images/proceso-comunitario-photo/10.jpg"
        },
        {
          "id": 11,
          "img": "./images/proceso-comunitario-photo/11.jpg"
        },
        {
          "id": 12,
          "img": "./images/proceso-comunitario-photo/12.jpg"
        },
        {
          "id": 13,
          "img": "./images/proceso-comunitario-photo/13.jpg"
        }
      ]
    }
  },
  {
    "id": "procesos-comunitarios",
    "title": "Procesos Comunitarios",
    "img": "./images/play.svg",
    "color": "#9BC2D4",
    "type": "Audiovisual",
    "typeId": "audio-visual",
    "cardType": {
      "videoType": "Procesos Comunitarios",
      "videoInfoContainer": [
        {
          "question": "Votación Comunitaria en Humacao",
          "answer": "Lxs vecinxs del Barrio Mariana en Humacao votan para decidir qué Proyecto Colaborativo implementar en su comunidad.",
          "url": "https://www.youtube.com/embed/DG2rSpoWA_E"
        },
        {
          "question": "Asamblea Comunitaria en Carolina",
          "answer": "Las líderes comunitarias de San Antón, Los Mirtos y Saint Just en Carolina presentan a la comunidad los avances en el diseño de una cocina comunitaria en la antigua escuela La Conde.",
          "url": "https://www.youtube.com/embed/DG2rSpoWA_E"
        }
      ]
    }
  },
  {
    "id": "procesos-comunitarios",
    "cardNumber": 1,
    "title": "Guía para el liderazgo participativo",
    "img": "./images/saw.svg",
    "color": "#9BC2D4",
    "type": "Herramientas",
    "typeId": "herramientas",
    "cardType": {
      "subTitle": "Convocar, reunir y liderar",
      "beforeStarting": [
        {
          "step": 1,
          "statement": "convoquen a la comunidad.",
          "sentence": "No hay poroceso sin comunidad, ¿es obvio! Así que, no importa en qué punto del proceso estén, asegúrense de invitar a todxs con tiempo para que cuenten con una buena representación de vecinxs."
        },
        {
          "step": 2,
          "statement": "verifiquen la guía.",
          "sentence": "Lean sobre la importancia de la participación comunitaria, ¡pa’ que vean lo genial que es organizarse!",
          "pdf": "http://www.africau.edu/images/default/sample.steps",
          "pdfButton": "DESCARGAR GUÍA"
        },
        {
          "step": 3,
          "statement": "confirmen",
          "sentence": "Confirmen en qué punto del proceso están. Esta guía resume en distintos pasos el proceso de organización comunitaria, desde armar un liderato hasta llevar a cabo una votación."
        }
      ],
      "allReady": [
        {
          "step": 1,
          "statement": "¡utilicen la plantiila correspondiente!",
          "sentence": "Sigan las indicaciones específicas del punto en el proceso en el que están."
        },
        {
          "step": 2,
          "statement": "coordinen una próxima reunión",
          "sentence": "No se vayan sin acordar cuándo verse de nuevo para seguir los trabajos! Les reecomiendo  poner una fecha periódica, como todos los jueves del mes, para ir haciendo hábito."
        }
      ],
      "finishAction": " REÚNANSE:",
      "note1": "Yo se que los procesos comunitarios pueden ser complejos al principio. No es fácil mediar entre distintas opiniones e ideas, ¡perso hay que hacerlo! Un consejo: luego de terminar la actividad, quédense unos minutos y pregúntense: \n1. ¿Qué les pareció la actividad? \n2. ¿Qué funcionó? ¿Que no? ¿Cómo lo cambiarían?"
    }
  },

  {
    "id": "procesos-comunitarios",
    "cardNumber": 2,
    "title": "Plan de Emergencia Comunitario",
    "img": "./images/saw.svg",
    "color": "#9BC2D4",
    "type": "Herramientas",
    "typeId": "herramientas",
    "cardType": {
      "subTitle": "Una comunidad organizada es más segura",
      "beforeStarting": [
        {
          "step": 1,
          "statement": "convoquen a la comunidad.",
          "sentence": "Pueden ir casa por casa, imprimir anuncios o hacer una cadena de mensajes de texto. Recuerden hacerlo con tiempo para que vaya la mayor cantidad posible de vecinxs."
        },
        {
          "step": 2,
          "statement": "reúnanse.",
          "sentence": "Seleccionen un lugar cómodo, y lleven agua, café y meriendas para compartir. También les recomiendo tener una superficie grande donde escribir y que todos vean, como una pizarra o papel de estraza gigante."
        },
        {
          "step": 3,
          "statement": "utilicen la herramienta.",
          "sentence": "Pueden fotocopiar o descargar la plantilla Creando un Plan de emergencia.",
          "pdf": "http://www.africau.edu/images/default/sample.steps",
          "pdfButton": "DESCARGAR"
        }
      ],
      "allReady": [
        {
          "step": 1,
          "statement": "¡evalúen sus necesidades y recursos.",
          "sentence": "Identifiquen las vulnerabilidades de su comunidad y qué recursos tienen a la mano para suplirlas."
        },
        {
          "step": 2,
          "statement": "establezcan un lugar seguro",
          "sentence": "En caso de una emergencia, lo más importante es proteger la vida. Determinen un lugar seguro dentro de su comunidad para encontrarse y pasar el evento."
        },
        {
          "step": 3,
          "statement": "Delineen un sistema de comunicaciones.",
          "sentence": "Muchas veces los desastres naturales llevan al colapso de la red telefónica. ¡Busquen alternativas para mantenerse comunicadxs."
        }
      ],
      "note1": "1. Considerar organizar un simulacro. ¡No hay mejor forma de saber si el plan funciona que poniéndolo a correr! \n2. Revisen el plan periódicamente y asegurense de que los recursos están al día."
    }
  },
  {
    "id": "procesos-comunitarios",
    "cardNumber": 3,
    "title": "Activos Comunitarios",
    "img": "./images/saw.svg",
    "color": "#9BC2D4",
    "type": "Herramientas",
    "typeId": "herramientas",
    "cardType": {
      "subTitle": "¿con qué talentos contamos?",
      "beforeStarting": [
        {
          "step": 1,
          "statement": "convoquen a la comunidad.",
          "sentence": "Pueden ir casa por casa, imprimir anuncios o hacer una cadena de mensajes de texto. Recuerden hacerlo con tiempo para que vaya la mayor cantidad posible de vecinxs."
        },
        {
          "step": 2,
          "statement": "reúnanse.",
          "sentence": "Seleccionen un lugar cómodo, y lleven agua, café y meriendas para compartir."
        },
        {
          "step": 3,
          "statement": "preparen la herramienta y los materiales",
          "sentence": "Pueden fotocopiar Barajas aquí. Tengan a la mano tijeras, lápices y marcadores para todxs.",
          "pdf": "http://www.africau.edu/images/default/sample.steps",
          "pdfButton": "DESCARGAR"
        }
      ],
      "allReady": [
        {
          "step": 1,
          "statement": "¡repartan!",
          "sentence": "Denle una tarjeta en blanco a cada participante"
        },
        {
          "step": 2,
          "statement": "¡completen!",
          "sentence": "Llenen su perfil con sus datos básicos, lo que les gusta o no hacer, y cómo pueden servirle a su comunidad. Vean que las barajas de lxs líderes comunitarixs de Humacao y Comerío y lxs integrantes de La Maraña como ejemplo."
        },
        {
          "step": 3,
          "statement": "Tomen turnos para compartir lo que escribieron en su tarjeta.",
          "sentence": "Ya que saben qué recursos necesitan, planifiquen cómo conseguirlos."
        }
      ],

      "note1": "<b>Ahora que se conocen mejor, pregúntense:</b> \n1. ¿Con qué recursos cuenta nuestra comunidad? Pueden marcarlos en la tarjeta con el índice de talentxs y conocimiento técnico. \n2.¿qúe recursos o talentos nos hacen falta? ¿Cómo y dónde podemos conseguirlos?"
    }
  },
  {
    "id": "procesos-comunitarios",
    "cardNumber": 4,
    "title": "Presupuesto Transparente",
    "img": "./images/saw.svg",
    "color": "#9BC2D4",
    "type": "Herramientas",
    "typeId": "herramientas",
    "cardType": {
      "subTitle": "Manteniendo las cuentas claras",
      "beforeStarting": [
        {
          "step": 1,
          "statement": "organicen un comité de presupuestos.",
          "sentence": "Manejar dinero es una tarea que requiere precisión y muuuuucha responsabilidad. Sigan mi consejo: formar un grupo pequeño, de tres a cinco personas de confianza."
        },
        {
          "step": 2,
          "statement": "reúnanse.",
          "sentence": "Seleccionen un lugar cómodo y seguro, donde puedan hablar de forma privada y libre."
        },
        {
          "step": 3,
          "statement": "preparen la herramienta y los materiales",
          "sentence": "Encuentran una copia en el Archivo de Documentos de la Cartuchera, pero igual pueden descargarla aquí. Confíen: ¡esta herramienta va a ser mucho más divertida de lo que esperan!",
          "pdf": "http://www.africau.edu/images/default/sample.steps",
          "pdfButton": "DESCARGAR"
        }
      ],
      "allReady": [
        {
          "step": 1,
          "statement": "elijan",
          "sentence": "Elijan un punto de inicio dependiendo del objetivo que quieran conseguir. "
        },
        {
          "step": 2,
          "statement": "¡sigan el flujograma!",
          "sentence": "¿Se acuerdan del juego de las chorreras y las escaleras? Esto es súper similar: cada vez que contestan una pregunta, avanzan por una vía de acción distinta. "
        },
        {
          "step": 3,
          "statement": "delineen un plan de acción",
          "sentence": "El último cuadrito tendrá una recomendación de qué hacer después. ¡Planifiquen cómo ejecutarla!"
        }
      ],

      "note1": "<b>Hagan un reporte.</b> Resuman los logros de la reunión, el estatus financiero y los próximos pasos.\n Compartan el reporte por e-mail o preséntenlo durante la próxima asamblea comunitaria. Recuerden que, cuando del dinero de todxs se trata, <b>¡“cuentas claras conservan amistades”!</b>"
    }
  },

  {
    "id": "justicia-narrativa",
    "title": "Justicia Narrativa",
    "img": "./images/justicia-narrativa.svg",
    "color": "#F9A66B",
    "type": "Presentation",
    "typeId": "presentation",
    "cardType": {
      "presentationName": "Kit de Justicia Narrativa",
      "icon": "./images/actua.svg",
      "subTitle": "¡Hola me llaman Dé y soy nietx de Doña Luz.",
      "description": "No es por tener guille, pero nadie me pone un pie alante cuando de usar herramientas se trata. Por eso me llaman cada vez que hay que reparar algo que se rompió en la casa, limpiar el parque o hasta pensar cómo entrarle a un proyecto de construcción. Yo soy de las que piensa que unx tiene que envolverse en lo que se construye en la comunidad, y este Kit de Proyecto Colaborativo es perfecto para eso. ",
      "sentence": "¡Agarra esta cinta métrica y vamos a meterle!",
      "name": "DÉ",
      "nameSvg": "./images/de.svg"
    }
  },
  {
    "id": "justicia-narrativa",
    "title": "Justicia Narrativa",
    "img": "./images/camera.svg",
    "color": "#F9A66B",
    "type": "Photo",
    "typeId": "photo",
    "cardType": {
      "typeName": "Álbum de fotos",
      "subTitle": "Justicia Narrativa",
      "description": "Estas fotos muestran la justicia narrativa en acción en las comunidades de Carolina, Comerío y Humacao.",
      "picture": [
        {
          "id": 1,
          "img": "./images/justicia-narrativa-photo/1.jpg"
        },
        {
          "id": 2,
          "img": "./images/justicia-narrativa-photo/2.jpg"
        },
        {
          "id": 3,
          "img": "./images/justicia-narrativa-photo/3.jpg"
        },
        {
          "id": 4,
          "img": "./images/justicia-narrativa-photo/4.jpg"
        },
        {
          "id": 5,
          "img": "./images/justicia-narrativa-photo/5.jpg"
        },
        {
          "id": 6,
          "img": "./images/justicia-narrativa-photo/6.jpg"
        },
        {
          "id": 7,
          "img": "./images/justicia-narrativa-photo/7.jpg"
        }
      ]
    }
  },
  {
    "id": "justicia-narrativa",
    "title": "Justicia Narrativa",
    "img": "./images/play.svg",
    "color": "#F9A66B",
    "type": "Audiovisual",
    "typeId": "audio-visual",
    "cardType": {
      "videoType": "Justicia Narrativa",
      "videoInfoContainer": [
        {
          "question": "¿Cómo se ve la justicia narrativa?",
          "answer": "Celebra y conmemora junto a las comunidades de Carolina y Comerío la importancia de contar nuestra propia historia para así hacer justicia narrativa.",
          "url": "https://www.youtube.com/embed/DG2rSpoWA_E"
        }
      ]
    }
  },
  {
    "id": "justicia-narrativa",
    "title": "Justicia Narrativa",
    "img": "./images/cube.svg",
    "color": "#F9A66B",
    "type": "Rompehielos",
    "typeId": "rompehielos",
    "cardType": {
      "nameType": "Rompehielos",
      "kitType": "Kit de Justicia Narrativa",
      "actionTitle": [
        {
          "icon": "./images/conversa.svg",
          "subTitle": "CONVERSA",
          "actionSentence": "Imagínense que van a hacer una estatua de alguien importante para la comunidad para poner en la plaza o en el parque. ¿De quién o quiénes sería esa estatua? ¿Porque?"
        },
        {
          "icon": "./images/dibuja.svg",
          "subTitle": "DIBUJA",
          "actionSentence": "Dibuja un sitio que antes había en tu comunidad y que ya no está. ¿Qué es lo que más recuerdas de ese lugar? ¿Lo extrañas? ¿Qué fue lo que pasó?"
        },
        {
          "icon": "./images/actua.svg",
          "subTitle": "ACTÚA",
          "actionSentence": "Piensa en un espacio reconocido de tu vecindario. Sin decir nada, actúa como si estuvises en ese lugar. La idea es que lxs demás adivinen en qué sitio imaginas estar."
        },
        {
          "icon": "./images/libre.svg",
          "subTitle": "LIBRE",
          "actionSentence": "¡Hagan un cuento juntxs! Es bien fácil, lo único que necesitan es un reloj. Cada persona tiene 30 segundos para hacer su historia y luego le toca a la próxima seguirlo. Pueden empezar con una frase como esta: “Había una vez y dos son tres una comunidad llamada…”. ¡No paren hasta que todxs hayan participado!"
        }
      ]
    }
  },

  {
    "id": "justicia-narrativa",
    "cardNumber": 1,
    "title": "Guía para la Justicia Narrativa",
    "img": "./images/saw.svg",
    "color": "#F9A66B",
    "type": "Herramientas",
    "typeId": "herramientas",
    "cardType": {
      "subTitle": "Que es y cómo trabajar para conseguirla",
      "beforeStarting": [
        {
          "step": 1,
          "statement": "Loren",
          "sentence": "Lorem ipsum dolor sit amet, consectetuer sed diam nonummy nibh euismod tincidunt ut laoreet dolore magna aliquam erat volutpat."
        },
        {
          "step": 2,
          "statement": "Loren",
          "sentence": "Lorem ipsum dolor sit amet, consectetuer sed diam nonummy nibh euismod tincidunt ut laoreet dolore magna aliquam erat volutpat.",
          "pdf": "http://www.africau.edu/images/default/sample.steps",
          "pdfButton": "DESCARGAR GUÍA"
        },
        {
          "step": 3,
          "statement": "Loren",
          "sentence": "Lorem ipsum dolor sit amet, consectetuer sed diam nonummy nibh euismod tincidunt ut laoreet dolore magna aliquam erat volutpat."
        }
      ],
      "allReady": [
        {
          "step": 1,
          "statement": "Loren",
          "sentence": "Lorem ipsum dolor sit amet, consectetuer sed diam nonummy nibh euismod tincidunt ut laoreet dolore magna aliquam erat volutpat."
        },
        {
          "step": 2,
          "statement": "Loren",
          "sentence": "Lorem ipsum dolor sit amet, consectetuer sed diam nonummy nibh euismod tincidunt ut laoreet dolore magna aliquam erat volutpat."
        },
        {
          "step": 3,
          "statement": "Loren",
          "sentence": "Lorem ipsum dolor sit amet, consectetuer sed diam nonummy nibh euismod tincidunt ut laoreet dolore magna aliquam erat volutpat."
        }
      ],
      "note1": "1. Lorem ipsum dolor sit amet, consectetuer sed diam nonummy nibh euismod tincidunt ut laoreet dolore magna aliquam erat volutpat.",
      "note2": "2. No se vayan sin acordar cuándo reunirse de nuevo. Les recomiendo poner una fecha periódica, como los primeros jueves de cada mes."
    }
  },
  {
    "id": "justicia-narrativa",
    "cardNumber": 2,
    "title": "Visionando nuestro futuro",
    "img": "./images/saw.svg",
    "color": "#F9A66B",
    "type": "Herramientas",
    "typeId": "herramientas",
    "cardType": {
      "subTitle": "Nuestra comunidad, mañana",
      "beforeStarting": [
        {
          "step": 1,
          "statement": "Loren",
          "sentence": "Lorem ipsum dolor sit amet, consectetuer sed diam nonummy nibh euismod tincidunt ut laoreet dolore magna aliquam erat volutpat."
        },
        {
          "step": 2,
          "statement": "Loren",
          "sentence": "Lorem ipsum dolor sit amet, consectetuer sed diam nonummy nibh euismod tincidunt ut laoreet dolore magna aliquam erat volutpat.",
          "pdf": "http://www.africau.edu/images/default/sample.steps",
          "pdfButton": "DESCARGAR GUÍA"
        },
        {
          "step": 3,
          "statement": "Loren",
          "sentence": "Lorem ipsum dolor sit amet, consectetuer sed diam nonummy nibh euismod tincidunt ut laoreet dolore magna aliquam erat volutpat."
        }
      ],
      "allReady": [
        {
          "step": 1,
          "statement": "Loren",
          "sentence": "Lorem ipsum dolor sit amet, consectetuer sed diam nonummy nibh euismod tincidunt ut laoreet dolore magna aliquam erat volutpat."
        },
        {
          "step": 2,
          "statement": "Loren",
          "sentence": "Lorem ipsum dolor sit amet, consectetuer sed diam nonummy nibh euismod tincidunt ut laoreet dolore magna aliquam erat volutpat."
        },
        {
          "step": 3,
          "statement": "Loren",
          "sentence": "Lorem ipsum dolor sit amet, consectetuer sed diam nonummy nibh euismod tincidunt ut laoreet dolore magna aliquam erat volutpat."
        }
      ],
      "note1": "1. Lorem ipsum dolor sit amet, consectetuer sed diam nonummy nibh euismod tincidunt ut laoreet dolore magna aliquam erat volutpat.",
      "note2": "2. No se vayan sin acordar cuándo reunirse de nuevo. Les recomiendo poner una fecha periódica, como los primeros jueves de cada mes."
    }
  },
  {
    "id": "justicia-narrativa",
    "cardNumber": 3,
    "title": "Justicia Narrativa en la Práctica",
    "img": "./images/saw.svg",
    "color": "#F9A66B",
    "type": "Herramientas",
    "typeId": "herramientas",
    "cardType": {
      "subTitle": "¿Quiénes trabajan por ella todos los días?",
      "beforeStarting": [
        {
          "step": 1,
          "statement": "Loren",
          "sentence": "Lorem ipsum dolor sit amet, consectetuer sed diam nonummy nibh euismod tincidunt ut laoreet dolore magna aliquam erat volutpat."
        },
        {
          "step": 2,
          "statement": "Loren",
          "sentence": "Lorem ipsum dolor sit amet, consectetuer sed diam nonummy nibh euismod tincidunt ut laoreet dolore magna aliquam erat volutpat.",
          "pdf": "http://www.africau.edu/images/default/sample.steps",
          "pdfButton": "DESCARGAR GUÍA"
        },
        {
          "step": 3,
          "statement": "Loren",
          "sentence": "Lorem ipsum dolor sit amet, consectetuer sed diam nonummy nibh euismod tincidunt ut laoreet dolore magna aliquam erat volutpat."
        }
      ],
      "allReady": [
        {
          "step": 1,
          "statement": "Loren",
          "sentence": "Lorem ipsum dolor sit amet, consectetuer sed diam nonummy nibh euismod tincidunt ut laoreet dolore magna aliquam erat volutpat."
        },
        {
          "step": 2,
          "statement": "Loren",
          "sentence": "Lorem ipsum dolor sit amet, consectetuer sed diam nonummy nibh euismod tincidunt ut laoreet dolore magna aliquam erat volutpat."
        },
        {
          "step": 3,
          "statement": "Loren",
          "sentence": "Lorem ipsum dolor sit amet, consectetuer sed diam nonummy nibh euismod tincidunt ut laoreet dolore magna aliquam erat volutpat."
        }
      ],
      "note1": "1.Lorem ipsum dolor sit amet, consectetuer sed diam nonummy nibh euismod tincidunt ut laoreet dolore magna aliquam erat volutpat.",
      "note2": "2. No se vayan sin acordar cuándo reunirse de nuevo. Les recomiendo poner una fecha periódica, como los primeros jueves de cada mes."
    }
  },

  {
    "id": "mapeo-comunitario",
    "title": "Mapeo Comunitario",
    "img": "./images/mapeo-comunitario.svg",
    "color": "#EF604B",
    "type": "Presentation",
    "typeId": "presentation",
    "cardType": {
      "presentationName": "Kit de Mapeo comunitario",
      "subTitle": "¡Buen día, mijx! Soy Doña Luz y vivo en el Barrio de Yautías desde que nací hace 70 años.",
      "description": "¡Mira que ha llovido y muchas cosas han cambiado! Me conozco las calles, edificios y árboles de este barrio como la palma de mi mano, y todxs sus vecinxs me piden la bendición. Acompáñame en esta travesía por el Kit de Mapeo Comunitario para conocer bien nuestro vecindario y ver cómo podemos hacerlo mejor para todxs. ",
      "name": "DOÑA LUZ",
      "nameSvg": "./images/donaLuz.svg"
    }
  },
  {
    "id": "mapeo-comunitario",
    "title": "Mapeo Comunitario",
    "img": "./images/camera.svg",
    "color": "#EF604B",
    "type": "Photo",
    "typeId": "photo",
    "cardType": {
      "typeName": "Álbum de fotos",
      "subTitle": "Mapeo comunitario",
      "description": "¡CONOCE LAS FORMAS DIVERSAS EN QUE SE REALIZÓ EL MAPEO COMUNITARIO EN CAROLINA, HUMACAO  Y COMERÍO",
      "picture": [
        {
          "id": 1,
          "img": "./images/mapeo-comunitario-photo/1.jpg"
        },
        {
          "id": 2,
          "img": "./images/mapeo-comunitario-photo/2.jpg"
        },
        {
          "id": 3,
          "img": "./images/mapeo-comunitario-photo/3.jpg"
        },
        {
          "id": 4,
          "img": "./images/mapeo-comunitario-photo/4.jpg"
        },
        {
          "id": 5,
          "img": "./images/mapeo-comunitario-photo/5.jpg"
        },
        {
          "id": 6,
          "img": "./images/mapeo-comunitario-photo/6.jpg"
        },
        {
          "id": 7,
          "img": "./images/mapeo-comunitario-photo/7.jpg"
        },
        {
          "id": 8,
          "img": "./images/mapeo-comunitario-photo/8.jpg"
        },
        {
          "id": 9,
          "img": "./images/mapeo-comunitario-photo/9.jpg"
        },
        {
          "id": 10,
          "img": "./images/mapeo-comunitario-photo/10.jpg"
        }
      ]
    }
  },
  {
    "id": "mapeo-comunitario",
    "title": "Mapeo Comunitario",
    "img": "./images/play.svg",
    "color": "#EF604B",
    "type": "Audiovisual",
    "typeId": "audio-visual",
    "cardType": {
      "videoType": "Mapeo Comunitario y Censo Comunitario",
      "videoInfoContainer": [
        {
          "question": "¿QUE SIGNIFICA MAPEAR TU COMUNIDAD?",
          "answer": "Mira cómo se organizaron lxs vecinxs de los barrio de Mariana y de Humacao, y San Antón y Saint Just de Carolina para trazar juntoxs el Mapa de su Comunidad.",
          "url": "https://www.youtube.com/embed/DG2rSpoWA_E"
        },
        {
          "question": "¿QUE IMPLICA HACER UN CENSO COMUNITARIO?",
          "answer": "Acompaña a Mariangelie Ortiz, líder comerieña del barrio Los Guaretos, en su travesía casa por casa para levantar un censocomunitario.",
          "url": "https://www.youtube.com/embed/DG2rSpoWA_E"
        }
      ]
    }
  },
  {
    "id": "mapeo-comunitario",
    "title": "Mapeo Comunitario",
    "img": "./images/cube.svg",
    "color": "#EF604B",
    "type": "Rompehielos",
    "typeId": "rompehielos",
    "cardType": {
      "nameType": "Rompehielos",
      "kitType": "Kit de mapeo comunitario",
      "actionTitle": [
        {
          "icon": "./images/conversa.svg",
          "subTitle": "CONVERSA",
          "actionSentence": "Si tuvieras que <b>escoger un elemento que caracteriza a tu vecindario</b>, como un edificio icónico, un puente o un río, ¿cuál sería y porqué?"
        },
        {
          "icon": "./images/dibuja.svg",
          "subTitle": "DIBUJA",
          "actionSentence": "Dibuja <b>el lugar que más te gusta y que el que menos</b> te gusta en tu comunidad. Pon los dibujos de todxs en dos grupos y observa. ¿Qué cosas se parecen? ¿Qué cosas son diferentes?"
        },
        {
          "icon": "./images/actua.svg",
          "subTitle": "ACTÚA",
          "actionSentence": "Piensa en un espacio reconocido de tu vecindario. Sin decir nada, <b>actúa como si estuvises en ese lugar.</b> La idea es que lxs demás adivinen en qué sitio imaginas estar."
        },
        {
          "icon": "./images/libre.svg",
          "subTitle": "LIBRE",
          "actionSentence": "Imagínate que quieres invitar a unx vecinx a encontrarse en un lugar en tu comunidad. Sin decir el nombre del destino, <b>dale las instrucciones de cómo llegar desde donde están reunidxs,</b> hasta que adivine dónde se dirige."
        }
      ]
    }
  },
  {
    "id": "mapeo-comunitario",
    "cardNumber": 1,
    "title": "Guía para recorridos comunitarios",
    "img": "./images/saw.svg",
    "color": "#EF604B",
    "type": "Herramientas",
    "typeId": "herramientas",
    "cardType": {
      "subTitle": "¡conozcamos nuestro barrio!",
      "beforeStarting": [
        {
          "step": 1,
          "statement": "lee la guía.",
          "sentence": "Comienza por las recomendaciones sobre qué hacer antes del recorrido",
          "pdf": "http://www.africau.edu/images/default/sample.steps",
          "pdfButton": "DESCARGAR GUÍA"
        },
        {
          "step": 2,
          "statement": "escoge un recorrido",
          "sentence": "Esta guía tiene cinco recorridos por tema y uno libre que pueden planificar a su gusto. Considera quiénes van a participar y cuánto tiempo tienen antes de escoger el recorrido y traza la ruta."
        },
        {
          "step": 3,
          "statement": "¡mientras más, mejor!",
          "sentence": "Acuerden un día, hora y lugar conveniente para encontrarse. Recuerda planificar un lugar de llegada para reunirse, merendar y conversar al terminar"
        }
      ],
      "allReady": [
        {
          "step": 1,
          "statement": "¡camina y observa!",
          "sentence": "Fíjate en los elementos grandes, como las calles, los lotes y los edificios, pero también en los detallitos como los colores, los sonidos, hasta los olores. "
        },
        {
          "step": 2,
          "statement": "¡anota!",
          "sentence": "Utiliza la plantilla para marcar y describir lo que experimentes."
        },
        {
          "step": 3,
          "statement": "¡dibuja!",
          "sentence": "Escoge un lugar o elemento que necesita mejorar y dibújalo tal y como está. Luego, dibuja como podría ser mejor,"
        }
      ],
      "finishAction": "REÚNANSE:",
      "note1": "1. Conversen sobre las experiencias. sigan las preguntas en la sección 'DESPUES' de la Guía. \n2. Tomen nota en una pizarra o superficie grande. \n3. ¿Cuán bien conocen su comunidad? ¿Harían otro recorrido o pasarían al próximo kit?"
    }
  },
  {
    "id": "mapeo-comunitario",
    "cardNumber": 2,
    "title": "Mapa de nuestra comunidad",
    "img": "./images/saw.svg",
    "color": "#EF604B",
    "type": "Herramientas",
    "typeId": "herramientas",
    "cardType": {
      "subTitle": "Dibujemos juntxs nuestro entorno",
      "beforeStarting": [
        {
          "step": 1,
          "statement": "reúne a tu comunidad.",
          "sentence": "Tengan a la mano papel, marcadores, lápices o cualquier material que puedan usar para dibujar."
        },
        {
          "step": 2,
          "statement": "elige dónde dibujar.",
          "sentence": "Puede ser un papel grande o hasta una pared o pizarra. También puedes imprimir una copia de una plantilla en cartucheracomunitaria.com"
        },
        {
          "step": 3,
          "statement": "prepara las pegatinas",
          "sentence": "Las encuentras en el Archivo de Documentos o en la página web de la Cartuchera. ¡Recuerda que puedes diseñar tu propia pegatina!"
        }
      ],
      "allReady": [
        {
          "step": 1,
          "statement": "¡dibuja!",
          "sentence": "No hay una sola forma de hacer un mapa, pero una buena estrategia es empezar por alguna caller o edificio que todxs conozcan."
        },
        {
          "step": 2,
          "statement": "¡ubica!",
          "sentence": "Coloca las pegatinas sobre el mapa. Pon tu casa, la escuela o ese árbol que mangó que todxs conocen."
        },
        {
          "step": 3,
          "statement": "¡escribe!",
          "sentence": "Añade los nombres de cada lugar, anota las partes chéveres y marca lo que necesita mejorar."
        }
      ],
      "finishAction": "REÚNANSE:",
      "note1": "1. Hablen sobre lo que imaginaron juntxs. Pueden usar la plantilla de preguntas en la parte “DESPUÉS” de la Guía.\n2. ¿Qué partes de este lugar soñado son más viables que otros? ¿Qué haría falta para hacerlo posible? \n3. ¿Volverían a hacer un taller de imaginario como éste? ¿Por qué o por qué no?"
    }
  },
  {
    "id": "mapeo-comunitario",
    "cardNumber": 3,
    "title": "Censo comunitario",
    "img": "./images/saw.svg",
    "color": "#EF604B",
    "type": "Herramientas",
    "typeId": "herramientas",
    "cardType": {
      "subTitle": "¿Quiénes habitamos este espacio?",
      "beforeStarting": [
        {
          "step": 1,
          "statement": "elige cómo llegar a tus vecinos",
          "sentence": " Puedes reunir a tu comunidad, hacer un chat grupal, o ir de casa en casa."
        },
        {
          "step": 2,
          "statement": "copia la hoja de adultxs y la hoja de niñxs del archivo de documentos.",
          "sentence": "También puedes descarlgarlas en cartucheracomunitaria.com y compartirla por mensaje o email."
        },
        {
          "step": 3,
          "statement": "crea un comité de escrutinio",
          "sentence": "¡El trabajo en equipo es la clave! Cada voluntarix puede encargarse de recolectar los datos de un grupo de vecinxs, una calle o un sector en particular."
        }
      ],
      "allReady": [
        {
          "step": 1,
          "statement": "¡distribuye!",
          "sentence": "Asegúrate de cada familia de tu comunidad reciba y complete un formulario por cada adultx y por cada niñx."
        },
        {
          "step": 2,
          "statement": "¡recolecta!",
          "sentence": "Junto al comité de voluntarixs, recolecta las hojas una vez completadas."
        },
        {
          "step": 3,
          "statement": "¡organiza!",
          "sentence": "Utiliza la Hoja de Censo para crear una lista de todxs lxs vecinxs de tu comunidad."
        }
      ],
      "finishAction": "REÚNETE CON TU COMUNIDAD O CON EL COMITÉ DE VOLUNTARIXS PARA HABLAR SOBRE LA INFORMACIÓN QUE RECOPILARON.",
      "note1": "1. ¿Cómo es la gente en la comunidad? ¿Es una población envejecida? ¿Hay jóvenes profesionales, familias o niñxs? \n2. ¿Con cuáles talentos cuenta la comunidad? \n3. ¿Qué vecinxs son más vulnerables o requieren un cuidado especial?"
    }
  },
  {
    "id": "taller-imaginario",
    "title": "Talleres Imaginario",
    "img": "./images/talleres-de-imaginario.svg",
    "color": "#E1AC47",
    "type": "Presentation",
    "typeId": "presentation",
    "cardType": {
      "presentationName": "Kit de Talleres de Imaginario",
      "subTitle": "¡Hola ¿qué tal? Me llamo Toni y ésta es mi hija, Adriana.",
      "description": "Además de ser un papá alcahuete, en el vecindario me conocen por dos cosas: lo rico que cocino y lo mucho que me encanta pintar. Después de cerrar la cafetería por las tardes, a mi hija y a mí nos encanta hacer dibujos con tiza en la acera frente a casa. Con el Kit de talleres de Imaginario podrás pensar, imaginar y dibujar junto a nosotrxs una mejor comunidad. ¿Te nos unes?",
      "name": "TONY",
      "nameSvg": "./images/toniYadriana.svg"
    }
  },
  {
    "id": "taller-imaginario",
    "title": "Talleres Imaginario",
    "img": "./images/cube.svg",
    "color": "#E1AC47",
    "type": "Rompehielos",
    "typeId": "rompehielos",
    "cardType": {
      "nameType": "Rompehielos",
      "kitType": "Kit de Talleres de Imaginario",
      "actionTitle": [
        {
          "icon": "./images/conversa.svg",
          "subTitle": "CONVERSA",
          "actionSentence": "Si tuvieras que escoger un elemento que caracteriza a tu vecindario, como un edificio icónico, un puente o un río, ¿cuál sería y porqué?"
        },
        {
          "icon": "./images/dibuja.svg",
          "subTitle": "DIBUJA",
          "actionSentence": "Imagína que tienen la oportunidad dediseñar un parque,centro comunitario u otro espacio público en su vecindario. Preparen una superficie grande para hacer un dibujo común grandote. Tomen turnos de 30 segundos para añadir elementos al dibujo. ¡La imaginación es el límite!"
        },
        {
          "icon": "./images/actua.svg",
          "subTitle": "ACTÚA",
          "actionSentence": "Piensa en un espacio reconocido de tu vecindario. Sin decir nada, actúa como si estuvises en ese lugar. La idea es que lxs demas adivinen en qué sitio imaginas estar."
        },
        {
          "icon": "./images/libre.svg",
          "subTitle": "LIBRE",
          "actionSentence": "Escojan un espacio de su comunidad que necesite mejorarse. Hagan una lista de 5 elementos que atesoran y que deberían proteger, y 5 carácteristicas a mejorar."
        }
      ]
    }
  },

  {
    "id": "taller-imaginario",
    "title": "Talleres Imaginario",
    "img": "./images/camera.svg",
    "color": "#E1AC47",
    "type": "Photo",
    "typeId": "photo",
    "cardType": {
      "typeName": "Álbum de fotos",
      "subTitle": "Talleres de Imaginario",
      "description": "Explora las distintas manifestaciones que puede tomar un taller de imaginario con ejemplos vivos de las comunidades de Comerío, Carolina y Humacao.",
      "picture": [
        {
          "id": 0,
          "img": "./images/taller-imaginario-photo/0.jpg"
        },
        {
          "id": 1,
          "img": "./images/taller-imaginario-photo/1.jpg"
        },
        {
          "id": 2,
          "img": "./images/taller-imaginario-photo/2.jpg"
        },
        {
          "id": 3,
          "img": "./images/taller-imaginario-photo/3.jpg"
        },
        {
          "id": 4,
          "img": "./images/taller-imaginario-photo/4.jpg"
        },
        {
          "id": 5,
          "img": "./images/taller-imaginario-photo/5.jpg"
        },
        {
          "id": 6,
          "img": "./images/taller-imaginario-photo/6.jpg"
        },
        {
          "id": 7,
          "img": "./images/taller-imaginario-photo/7.jpg"
        },
        {
          "id": 8,
          "img": "./images/taller-imaginario-photo/8.jpg"
        },
        {
          "id": 97,
          "img": "./images/taller-imaginario-photo/9.jpg"
        },
        {
          "id": 10,
          "img": "./images/taller-imaginario-photo/10.jpg"
        }
      ]
    }
  },

  {
    "id": "taller-imaginario",
    "title": "Talleres Imaginario",
    "img": "./images/play.svg",
    "color": "#E1AC47",
    "type": "Audiovisual",
    "typeId": "audio-visual",
    "cardType": {
      "videoType": "Talleres de Imaginario",
      "videoInfoContainer": [
        {
          "question": "¿Qué es un Taller de Imaginario?",
          "answer": "Acompañemos a la comunidad de Carolina a imaginar una casa para su vecina, a la de Comerío a imaginar iluminación en su barrio, y a la de Humacao a imaginar un parque para todxs.",
          "url": "https://www.youtube.com/embed/DG2rSpoWA_E"
        }
      ]
    }
  },
  {
    "id": "taller-imaginario",
    "cardNumber": 1,
    "title": "Guía de talleres de imaginario",
    "img": "./images/saw.svg",
    "color": "#E1AC47",
    "type": "Herramientas",
    "typeId": "herramientas",
    "cardType": {
      "subTitle": "¡Imaginemos un mejor entorno para todxs!",
      "beforeStarting": [
        {
          "step": 1,
          "statement": "hojeen la guía",
          "sentence": "<p>Vayan a la sección que dice qué hacer <b>ANTES de empezar el taller.</b></p>",
          "pdf": "http://www.africau.edu/images/default/sample.steps",
          "pdfButton": "DESCARGAR GUÍA"
        },
        {
          "step": 2,
          "statement": "escojan que tipo de taller hacer.",
          "sentence": "<p><b>Escojan que tipo de taller hacer.</b> \n¿Les gustaría pintar? ¿Qué tal narrar un cuento común? Pueden seleccionar alguna de las actividades sugeridas, o si se sienten creativos como yo, pueden hasta inventarse su propia dinámica. ¡El cielo es el límite!<p>"
        },
        {
          "step": 3,
          "statement": "Preparen los materiales.",
          "sentence": "Como cada actividad es diferente, cada una necesitará materiales distintos. Planifiquen y divídanse las cosas antes de reunirse a tallerear."
        }
      ],
      "allReady": [
        {
          "step": 1,
          "statement": "¡tellereen!",
          "sentence": "Pueden seguir las indicaciones de la Guía, o también pueden “fluir” como dice Adriana e inventarse sus propias reglas."
        },
        {
          "step": 2,
          "statement": "¡documenten!",
          "sentence": "Utiliza las plantillas para marcar y describir lo que experimentes."
        }
      ],
      "finishAction": " REÚNANSE:",
      "note1": "1. Hablen sobre lo que imaginaron juntxs. Pueden usar la plantilla de preguntas en la parte 'DESPUES' de la Guía. \n2. ¿Qué partes de este lugar soñado son mas viables que otros? ¿Qué haría falta para hacerlo posible? \n3. ¿Volverían a hacer un taller imaginario como este? ¿Por qué o por qué no?",
      "note2": "2. No se vayan sin acordar cuándo reunirse de nuevo. Les recomiendo poner una fecha periódica, como los primeros jueves de cada mes."
    }
  },
  {
    "id": "taller-imaginario",
    "cardNumber": 2,
    "title": "Hojas de necesidades y sueños",
    "img": "./images/saw.svg",
    "color": "#E1AC47",
    "type": "Herramientas",
    "typeId": "herramientas",
    "cardType": {
      "subTitle": "Qué nos hace fata y a qué aspiramos",
      "beforeStarting": [
        {
          "step": 1,
          "statement": "reúnete con tus vecinxs.",
          "sentence": "<p> <strong>Mientas más personas participen,</strong> especialmente si son distintas edades y hasta sectores dentro del vecindario ¡mejor!<p>"
        },
        {
          "step": 2,
          "statement": "copia",
          "sentence": "<p> <b>Copia suficientes Hojas de Sueños y Hojas de Necesidades para todxs.</b> Las encuentras en el Archivo de Documentos. También puedes descargarlas en cartucheracomunitaria.com y compartirla por mensaje o email."
        },
        {
          "step": 3,
          "statement": "reparte",
          "sentence": "Reparte una hoja de cada una por persona o por grupo familiar."
        }
      ],
      "allReady": [
        {
          "step": 1,
          "statement": "completen sus hojas de sueños",
          "sentence": "Pueden usar las categorías sugeridas o plantilla y llenar los cuadritos que apliquen. \nPueden poner más de una idea por cajita, o también inventar otras categorías."
        },
        {
          "step": 2,
          "statement": "completen sus hojas de necesidades.",
          "sentence": "Recuerda pensar acá las necesidades básicas para el bienestar tuyo y de tu comunidad."
        },
        {
          "step": 3,
          "statement": "comparen ambas hojas",
          "sentence": "Evalúen si algún sueño es realmente una necesidad, o viceversa."
        }
      ],
      "finishAction": "COMPARTAN SUS HOJAS Y CONVERSEN:",
      "note1": "1. ¿Qué respuestas se repiten? \n2. ¿Hay alguna necesidad de tu comunidad que no conocías? \n3. ¿cómo podría incorporarse algo soñado en el proceso de suplir una necesidad colectiva? \n4. ¿cuán factible es lograr una necesidad versus un sueño?"
    }
  },
  {
    "id": "taller-imaginario",
    "cardNumber": 3,
    "title": "Plantilla de prioridades comunitarias",
    "img": "./images/saw.svg",
    "color": "#E1AC47",
    "type": "Herramientas",
    "typeId": "herramientas",
    "cardType": {
      "subTitle": "Conozcamos el diseño participativo y proceso de proyecto",
      "beforeStarting": [
        {
          "step": 1,
          "statement": "reúne a tu comunidad",
          "sentence": ""
        },
        {
          "step": 2,
          "statement": "elige una superficie grande donde escribir",
          "sentence": "<p>Pueden imprimir una copia de la plantilla de Prioridades Comunitarias en <b>cartucheracomunitaria.com,</b> usar la que hay en el Archivo de Documentos o pasar la tabla a un pedazo grande de papel de estraza o una pizarra.</p>"
        },
        {
          "step": 3,
          "statement": "reparte los sellitos.",
          "sentence": "Reparte una hoja de cada una por persoRecuerda darle pegatinas de los tres colores a cada persona o grupo familiar.  También pueden usar “post-its” o marcadores con los mismos colores (rojo, anaranjado y verde) y compartirlos. Una o por grupo familiar."
        }
      ],
      "allReady": [
        {
          "step": 1,
          "statement": "¡anoten!",
          "sentence": "Listen en la primera columna las prioridades de la comunidad. Si ya llenaron las Hojas de Necesidades y sueños de la Herramienta 2, pasen las que más se repitan."
        },
        {
          "step": 2,
          "statement": "¡completen la tabla!",
          "sentence": "Vayan tarea por tarea y piensen en las personas, tiempo y recursos que harían falta para llevarlas a cabo."
        },
        {
          "step": 3,
          "statement": "¡voten!",
          "sentence": "De acuerdo a todas estas variables, voten individualmente."
        }
      ],
      "note1": "1. Cuenten los votos y escriban la puntación total de cada tarea. \n2. Reorganicen la lista en orden de prioridad. \n3. Observen las primeras tareas. ¿Es posible realizarlas? ¿Con qué recursos cuentan? ¿Qué les hace falta para conseguir?"
    }
  }
]
